<?xml version="1.0" encoding="UTF-8" standalone="no"?>
<!-- Created with Inkscape (http://www.inkscape.org/) -->

<svg
   width="171.3215mm"
   height="43.400005mm"
   viewBox="0 0 171.3215 43.400005"
   version="1.1"
   id="svg11737"
   inkscape:version="1.1.1 (3bf5ae0d25, 2021-09-20)"
   sodipodi:docname="qrcode.svg"
   xmlns:inkscape="http://www.inkscape.org/namespaces/inkscape"
   xmlns:sodipodi="http://sodipodi.sourceforge.net/DTD/sodipodi-0.dtd"
   xmlns="http://www.w3.org/2000/svg"
   xmlns:svg="http://www.w3.org/2000/svg">
  <sodipodi:namedview
     id="namedview11739"
     pagecolor="#ffffff"
     bordercolor="#666666"
     borderopacity="1.0"
     inkscape:pageshadow="2"
     inkscape:pageopacity="0.0"
     inkscape:pagecheckerboard="0"
     inkscape:document-units="mm"
     showgrid="false"
     inkscape:zoom="0.7042597"
     inkscape:cx="318.77445"
     inkscape:cy="138.44325"
     inkscape:window-width="1366"
     inkscape:window-height="768"
     inkscape:window-x="0"
     inkscape:window-y="0"
     inkscape:window-maximized="1"
     inkscape:current-layer="layer1"
     fit-margin-top="0"
     fit-margin-left="0"
     fit-margin-right="0"
     fit-margin-bottom="0" />
  <defs
     id="defs11734" />
  <g
     inkscape:label="Layer 1"
     inkscape:groupmode="layer"
     id="layer1"
     transform="translate(-26.780727,-138.397)">
    <rect
       x="26.780727"
       y="138.397"
       width="43.400005"
       height="43.400005"
       fill="#ffffff"
       id="rect2"
       style="stroke-width:1.05854" />
    <g
       id="Pattern"
       transform="matrix(1.0585367,0,0,1.0585367,31.014874,142.63116)">
      <rect
         x="0"
         y="0"
         width="1"
         height="1"
         fill="#000000"
         id="rect4" />
      <rect
         x="1"
         y="0"
         width="1"
         height="1"
         fill="#000000"
         id="rect6" />
      <rect
         x="2"
         y="0"
         width="1"
         height="1"
         fill="#000000"
         id="rect8" />
      <rect
         x="3"
         y="0"
         width="1"
         height="1"
         fill="#000000"
         id="rect10" />
      <rect
         x="4"
         y="0"
         width="1"
         height="1"
         fill="#000000"
         id="rect12" />
      <rect
         x="5"
         y="0"
         width="1"
         height="1"
         fill="#000000"
         id="rect14" />
      <rect
         x="6"
         y="0"
         width="1"
         height="1"
         fill="#000000"
         id="rect16" />
      <rect
         x="11"
         y="0"
         width="1"
         height="1"
         fill="#000000"
         id="rect18" />
      <rect
         x="12"
         y="0"
         width="1"
         height="1"
         fill="#000000"
         id="rect20" />
      <rect
         x="13"
         y="0"
         width="1"
         height="1"
         fill="#000000"
         id="rect22" />
      <rect
         x="16"
         y="0"
         width="1"
         height="1"
         fill="#000000"
         id="rect24" />
      <rect
         x="18"
         y="0"
         width="1"
         height="1"
         fill="#000000"
         id="rect26" />
      <rect
         x="20"
         y="0"
         width="1"
         height="1"
         fill="#000000"
         id="rect28" />
      <rect
         x="22"
         y="0"
         width="1"
         height="1"
         fill="#000000"
         id="rect30" />
      <rect
         x="24"
         y="0"
         width="1"
         height="1"
         fill="#000000"
         id="rect32" />
      <rect
         x="26"
         y="0"
         width="1"
         height="1"
         fill="#000000"
         id="rect34" />
      <rect
         x="27"
         y="0"
         width="1"
         height="1"
         fill="#000000"
         id="rect36" />
      <rect
         x="28"
         y="0"
         width="1"
         height="1"
         fill="#000000"
         id="rect38" />
      <rect
         x="29"
         y="0"
         width="1"
         height="1"
         fill="#000000"
         id="rect40" />
      <rect
         x="30"
         y="0"
         width="1"
         height="1"
         fill="#000000"
         id="rect42" />
      <rect
         x="31"
         y="0"
         width="1"
         height="1"
         fill="#000000"
         id="rect44" />
      <rect
         x="32"
         y="0"
         width="1"
         height="1"
         fill="#000000"
         id="rect46" />
      <rect
         x="0"
         y="1"
         width="1"
         height="1"
         fill="#000000"
         id="rect48" />
      <rect
         x="6"
         y="1"
         width="1"
         height="1"
         fill="#000000"
         id="rect50" />
      <rect
         x="8"
         y="1"
         width="1"
         height="1"
         fill="#000000"
         id="rect52" />
      <rect
         x="11"
         y="1"
         width="1"
         height="1"
         fill="#000000"
         id="rect54" />
      <rect
         x="12"
         y="1"
         width="1"
         height="1"
         fill="#000000"
         id="rect56" />
      <rect
         x="13"
         y="1"
         width="1"
         height="1"
         fill="#000000"
         id="rect58" />
      <rect
         x="14"
         y="1"
         width="1"
         height="1"
         fill="#000000"
         id="rect60" />
      <rect
         x="16"
         y="1"
         width="1"
         height="1"
         fill="#000000"
         id="rect62" />
      <rect
         x="18"
         y="1"
         width="1"
         height="1"
         fill="#000000"
         id="rect64" />
      <rect
         x="19"
         y="1"
         width="1"
         height="1"
         fill="#000000"
         id="rect66" />
      <rect
         x="26"
         y="1"
         width="1"
         height="1"
         fill="#000000"
         id="rect68" />
      <rect
         x="32"
         y="1"
         width="1"
         height="1"
         fill="#000000"
         id="rect70" />
      <rect
         x="0"
         y="2"
         width="1"
         height="1"
         fill="#000000"
         id="rect72" />
      <rect
         x="2"
         y="2"
         width="1"
         height="1"
         fill="#000000"
         id="rect74" />
      <rect
         x="3"
         y="2"
         width="1"
         height="1"
         fill="#000000"
         id="rect76" />
      <rect
         x="4"
         y="2"
         width="1"
         height="1"
         fill="#000000"
         id="rect78" />
      <rect
         x="6"
         y="2"
         width="1"
         height="1"
         fill="#000000"
         id="rect80" />
      <rect
         x="8"
         y="2"
         width="1"
         height="1"
         fill="#000000"
         id="rect82" />
      <rect
         x="9"
         y="2"
         width="1"
         height="1"
         fill="#000000"
         id="rect84" />
      <rect
         x="10"
         y="2"
         width="1"
         height="1"
         fill="#000000"
         id="rect86" />
      <rect
         x="11"
         y="2"
         width="1"
         height="1"
         fill="#000000"
         id="rect88" />
      <rect
         x="12"
         y="2"
         width="1"
         height="1"
         fill="#000000"
         id="rect90" />
      <rect
         x="13"
         y="2"
         width="1"
         height="1"
         fill="#000000"
         id="rect92" />
      <rect
         x="14"
         y="2"
         width="1"
         height="1"
         fill="#000000"
         id="rect94" />
      <rect
         x="16"
         y="2"
         width="1"
         height="1"
         fill="#000000"
         id="rect96" />
      <rect
         x="17"
         y="2"
         width="1"
         height="1"
         fill="#000000"
         id="rect98" />
      <rect
         x="18"
         y="2"
         width="1"
         height="1"
         fill="#000000"
         id="rect100" />
      <rect
         x="19"
         y="2"
         width="1"
         height="1"
         fill="#000000"
         id="rect102" />
      <rect
         x="21"
         y="2"
         width="1"
         height="1"
         fill="#000000"
         id="rect104" />
      <rect
         x="24"
         y="2"
         width="1"
         height="1"
         fill="#000000"
         id="rect106" />
      <rect
         x="26"
         y="2"
         width="1"
         height="1"
         fill="#000000"
         id="rect108" />
      <rect
         x="28"
         y="2"
         width="1"
         height="1"
         fill="#000000"
         id="rect110" />
      <rect
         x="29"
         y="2"
         width="1"
         height="1"
         fill="#000000"
         id="rect112" />
      <rect
         x="30"
         y="2"
         width="1"
         height="1"
         fill="#000000"
         id="rect114" />
      <rect
         x="32"
         y="2"
         width="1"
         height="1"
         fill="#000000"
         id="rect116" />
      <rect
         x="0"
         y="3"
         width="1"
         height="1"
         fill="#000000"
         id="rect118" />
      <rect
         x="2"
         y="3"
         width="1"
         height="1"
         fill="#000000"
         id="rect120" />
      <rect
         x="3"
         y="3"
         width="1"
         height="1"
         fill="#000000"
         id="rect122" />
      <rect
         x="4"
         y="3"
         width="1"
         height="1"
         fill="#000000"
         id="rect124" />
      <rect
         x="6"
         y="3"
         width="1"
         height="1"
         fill="#000000"
         id="rect126" />
      <rect
         x="8"
         y="3"
         width="1"
         height="1"
         fill="#000000"
         id="rect128" />
      <rect
         x="9"
         y="3"
         width="1"
         height="1"
         fill="#000000"
         id="rect130" />
      <rect
         x="13"
         y="3"
         width="1"
         height="1"
         fill="#000000"
         id="rect132" />
      <rect
         x="14"
         y="3"
         width="1"
         height="1"
         fill="#000000"
         id="rect134" />
      <rect
         x="15"
         y="3"
         width="1"
         height="1"
         fill="#000000"
         id="rect136" />
      <rect
         x="17"
         y="3"
         width="1"
         height="1"
         fill="#000000"
         id="rect138" />
      <rect
         x="19"
         y="3"
         width="1"
         height="1"
         fill="#000000"
         id="rect140" />
      <rect
         x="21"
         y="3"
         width="1"
         height="1"
         fill="#000000"
         id="rect142" />
      <rect
         x="22"
         y="3"
         width="1"
         height="1"
         fill="#000000"
         id="rect144" />
      <rect
         x="23"
         y="3"
         width="1"
         height="1"
         fill="#000000"
         id="rect146" />
      <rect
         x="26"
         y="3"
         width="1"
         height="1"
         fill="#000000"
         id="rect148" />
      <rect
         x="28"
         y="3"
         width="1"
         height="1"
         fill="#000000"
         id="rect150" />
      <rect
         x="29"
         y="3"
         width="1"
         height="1"
         fill="#000000"
         id="rect152" />
      <rect
         x="30"
         y="3"
         width="1"
         height="1"
         fill="#000000"
         id="rect154" />
      <rect
         x="32"
         y="3"
         width="1"
         height="1"
         fill="#000000"
         id="rect156" />
      <rect
         x="0"
         y="4"
         width="1"
         height="1"
         fill="#000000"
         id="rect158" />
      <rect
         x="2"
         y="4"
         width="1"
         height="1"
         fill="#000000"
         id="rect160" />
      <rect
         x="3"
         y="4"
         width="1"
         height="1"
         fill="#000000"
         id="rect162" />
      <rect
         x="4"
         y="4"
         width="1"
         height="1"
         fill="#000000"
         id="rect164" />
      <rect
         x="6"
         y="4"
         width="1"
         height="1"
         fill="#000000"
         id="rect166" />
      <rect
         x="8"
         y="4"
         width="1"
         height="1"
         fill="#000000"
         id="rect168" />
      <rect
         x="9"
         y="4"
         width="1"
         height="1"
         fill="#000000"
         id="rect170" />
      <rect
         x="11"
         y="4"
         width="1"
         height="1"
         fill="#000000"
         id="rect172" />
      <rect
         x="12"
         y="4"
         width="1"
         height="1"
         fill="#000000"
         id="rect174" />
      <rect
         x="13"
         y="4"
         width="1"
         height="1"
         fill="#000000"
         id="rect176" />
      <rect
         x="14"
         y="4"
         width="1"
         height="1"
         fill="#000000"
         id="rect178" />
      <rect
         x="15"
         y="4"
         width="1"
         height="1"
         fill="#000000"
         id="rect180" />
      <rect
         x="18"
         y="4"
         width="1"
         height="1"
         fill="#000000"
         id="rect182" />
      <rect
         x="20"
         y="4"
         width="1"
         height="1"
         fill="#000000"
         id="rect184" />
      <rect
         x="21"
         y="4"
         width="1"
         height="1"
         fill="#000000"
         id="rect186" />
      <rect
         x="22"
         y="4"
         width="1"
         height="1"
         fill="#000000"
         id="rect188" />
      <rect
         x="24"
         y="4"
         width="1"
         height="1"
         fill="#000000"
         id="rect190" />
      <rect
         x="26"
         y="4"
         width="1"
         height="1"
         fill="#000000"
         id="rect192" />
      <rect
         x="28"
         y="4"
         width="1"
         height="1"
         fill="#000000"
         id="rect194" />
      <rect
         x="29"
         y="4"
         width="1"
         height="1"
         fill="#000000"
         id="rect196" />
      <rect
         x="30"
         y="4"
         width="1"
         height="1"
         fill="#000000"
         id="rect198" />
      <rect
         x="32"
         y="4"
         width="1"
         height="1"
         fill="#000000"
         id="rect200" />
      <rect
         x="0"
         y="5"
         width="1"
         height="1"
         fill="#000000"
         id="rect202" />
      <rect
         x="6"
         y="5"
         width="1"
         height="1"
         fill="#000000"
         id="rect204" />
      <rect
         x="8"
         y="5"
         width="1"
         height="1"
         fill="#000000"
         id="rect206" />
      <rect
         x="9"
         y="5"
         width="1"
         height="1"
         fill="#000000"
         id="rect208" />
      <rect
         x="11"
         y="5"
         width="1"
         height="1"
         fill="#000000"
         id="rect210" />
      <rect
         x="12"
         y="5"
         width="1"
         height="1"
         fill="#000000"
         id="rect212" />
      <rect
         x="14"
         y="5"
         width="1"
         height="1"
         fill="#000000"
         id="rect214" />
      <rect
         x="18"
         y="5"
         width="1"
         height="1"
         fill="#000000"
         id="rect216" />
      <rect
         x="19"
         y="5"
         width="1"
         height="1"
         fill="#000000"
         id="rect218" />
      <rect
         x="21"
         y="5"
         width="1"
         height="1"
         fill="#000000"
         id="rect220" />
      <rect
         x="22"
         y="5"
         width="1"
         height="1"
         fill="#000000"
         id="rect222" />
      <rect
         x="24"
         y="5"
         width="1"
         height="1"
         fill="#000000"
         id="rect224" />
      <rect
         x="26"
         y="5"
         width="1"
         height="1"
         fill="#000000"
         id="rect226" />
      <rect
         x="32"
         y="5"
         width="1"
         height="1"
         fill="#000000"
         id="rect228" />
      <rect
         x="0"
         y="6"
         width="1"
         height="1"
         fill="#000000"
         id="rect230" />
      <rect
         x="1"
         y="6"
         width="1"
         height="1"
         fill="#000000"
         id="rect232" />
      <rect
         x="2"
         y="6"
         width="1"
         height="1"
         fill="#000000"
         id="rect234" />
      <rect
         x="3"
         y="6"
         width="1"
         height="1"
         fill="#000000"
         id="rect236" />
      <rect
         x="4"
         y="6"
         width="1"
         height="1"
         fill="#000000"
         id="rect238" />
      <rect
         x="5"
         y="6"
         width="1"
         height="1"
         fill="#000000"
         id="rect240" />
      <rect
         x="6"
         y="6"
         width="1"
         height="1"
         fill="#000000"
         id="rect242" />
      <rect
         x="8"
         y="6"
         width="1"
         height="1"
         fill="#000000"
         id="rect244" />
      <rect
         x="10"
         y="6"
         width="1"
         height="1"
         fill="#000000"
         id="rect246" />
      <rect
         x="12"
         y="6"
         width="1"
         height="1"
         fill="#000000"
         id="rect248" />
      <rect
         x="14"
         y="6"
         width="1"
         height="1"
         fill="#000000"
         id="rect250" />
      <rect
         x="16"
         y="6"
         width="1"
         height="1"
         fill="#000000"
         id="rect252" />
      <rect
         x="18"
         y="6"
         width="1"
         height="1"
         fill="#000000"
         id="rect254" />
      <rect
         x="20"
         y="6"
         width="1"
         height="1"
         fill="#000000"
         id="rect256" />
      <rect
         x="22"
         y="6"
         width="1"
         height="1"
         fill="#000000"
         id="rect258" />
      <rect
         x="24"
         y="6"
         width="1"
         height="1"
         fill="#000000"
         id="rect260" />
      <rect
         x="26"
         y="6"
         width="1"
         height="1"
         fill="#000000"
         id="rect262" />
      <rect
         x="27"
         y="6"
         width="1"
         height="1"
         fill="#000000"
         id="rect264" />
      <rect
         x="28"
         y="6"
         width="1"
         height="1"
         fill="#000000"
         id="rect266" />
      <rect
         x="29"
         y="6"
         width="1"
         height="1"
         fill="#000000"
         id="rect268" />
      <rect
         x="30"
         y="6"
         width="1"
         height="1"
         fill="#000000"
         id="rect270" />
      <rect
         x="31"
         y="6"
         width="1"
         height="1"
         fill="#000000"
         id="rect272" />
      <rect
         x="32"
         y="6"
         width="1"
         height="1"
         fill="#000000"
         id="rect274" />
      <rect
         x="9"
         y="7"
         width="1"
         height="1"
         fill="#000000"
         id="rect276" />
      <rect
         x="10"
         y="7"
         width="1"
         height="1"
         fill="#000000"
         id="rect278" />
      <rect
         x="15"
         y="7"
         width="1"
         height="1"
         fill="#000000"
         id="rect280" />
      <rect
         x="18"
         y="7"
         width="1"
         height="1"
         fill="#000000"
         id="rect282" />
      <rect
         x="20"
         y="7"
         width="1"
         height="1"
         fill="#000000"
         id="rect284" />
      <rect
         x="22"
         y="7"
         width="1"
         height="1"
         fill="#000000"
         id="rect286" />
      <rect
         x="24"
         y="7"
         width="1"
         height="1"
         fill="#000000"
         id="rect288" />
      <rect
         x="2"
         y="8"
         width="1"
         height="1"
         fill="#000000"
         id="rect290" />
      <rect
         x="5"
         y="8"
         width="1"
         height="1"
         fill="#000000"
         id="rect292" />
      <rect
         x="6"
         y="8"
         width="1"
         height="1"
         fill="#000000"
         id="rect294" />
      <rect
         x="7"
         y="8"
         width="1"
         height="1"
         fill="#000000"
         id="rect296" />
      <rect
         x="8"
         y="8"
         width="1"
         height="1"
         fill="#000000"
         id="rect298" />
      <rect
         x="10"
         y="8"
         width="1"
         height="1"
         fill="#000000"
         id="rect300" />
      <rect
         x="11"
         y="8"
         width="1"
         height="1"
         fill="#000000"
         id="rect302" />
      <rect
         x="14"
         y="8"
         width="1"
         height="1"
         fill="#000000"
         id="rect304" />
      <rect
         x="15"
         y="8"
         width="1"
         height="1"
         fill="#000000"
         id="rect306" />
      <rect
         x="16"
         y="8"
         width="1"
         height="1"
         fill="#000000"
         id="rect308" />
      <rect
         x="17"
         y="8"
         width="1"
         height="1"
         fill="#000000"
         id="rect310" />
      <rect
         x="23"
         y="8"
         width="1"
         height="1"
         fill="#000000"
         id="rect312" />
      <rect
         x="24"
         y="8"
         width="1"
         height="1"
         fill="#000000"
         id="rect314" />
      <rect
         x="25"
         y="8"
         width="1"
         height="1"
         fill="#000000"
         id="rect316" />
      <rect
         x="27"
         y="8"
         width="1"
         height="1"
         fill="#000000"
         id="rect318" />
      <rect
         x="28"
         y="8"
         width="1"
         height="1"
         fill="#000000"
         id="rect320" />
      <rect
         x="29"
         y="8"
         width="1"
         height="1"
         fill="#000000"
         id="rect322" />
      <rect
         x="30"
         y="8"
         width="1"
         height="1"
         fill="#000000"
         id="rect324" />
      <rect
         x="31"
         y="8"
         width="1"
         height="1"
         fill="#000000"
         id="rect326" />
      <rect
         x="0"
         y="9"
         width="1"
         height="1"
         fill="#000000"
         id="rect328" />
      <rect
         x="1"
         y="9"
         width="1"
         height="1"
         fill="#000000"
         id="rect330" />
      <rect
         x="4"
         y="9"
         width="1"
         height="1"
         fill="#000000"
         id="rect332" />
      <rect
         x="7"
         y="9"
         width="1"
         height="1"
         fill="#000000"
         id="rect334" />
      <rect
         x="8"
         y="9"
         width="1"
         height="1"
         fill="#000000"
         id="rect336" />
      <rect
         x="11"
         y="9"
         width="1"
         height="1"
         fill="#000000"
         id="rect338" />
      <rect
         x="12"
         y="9"
         width="1"
         height="1"
         fill="#000000"
         id="rect340" />
      <rect
         x="16"
         y="9"
         width="1"
         height="1"
         fill="#000000"
         id="rect342" />
      <rect
         x="18"
         y="9"
         width="1"
         height="1"
         fill="#000000"
         id="rect344" />
      <rect
         x="19"
         y="9"
         width="1"
         height="1"
         fill="#000000"
         id="rect346" />
      <rect
         x="21"
         y="9"
         width="1"
         height="1"
         fill="#000000"
         id="rect348" />
      <rect
         x="22"
         y="9"
         width="1"
         height="1"
         fill="#000000"
         id="rect350" />
      <rect
         x="23"
         y="9"
         width="1"
         height="1"
         fill="#000000"
         id="rect352" />
      <rect
         x="24"
         y="9"
         width="1"
         height="1"
         fill="#000000"
         id="rect354" />
      <rect
         x="25"
         y="9"
         width="1"
         height="1"
         fill="#000000"
         id="rect356" />
      <rect
         x="26"
         y="9"
         width="1"
         height="1"
         fill="#000000"
         id="rect358" />
      <rect
         x="27"
         y="9"
         width="1"
         height="1"
         fill="#000000"
         id="rect360" />
      <rect
         x="29"
         y="9"
         width="1"
         height="1"
         fill="#000000"
         id="rect362" />
      <rect
         x="31"
         y="9"
         width="1"
         height="1"
         fill="#000000"
         id="rect364" />
      <rect
         x="32"
         y="9"
         width="1"
         height="1"
         fill="#000000"
         id="rect366" />
      <rect
         x="3"
         y="10"
         width="1"
         height="1"
         fill="#000000"
         id="rect368" />
      <rect
         x="6"
         y="10"
         width="1"
         height="1"
         fill="#000000"
         id="rect370" />
      <rect
         x="7"
         y="10"
         width="1"
         height="1"
         fill="#000000"
         id="rect372" />
      <rect
         x="8"
         y="10"
         width="1"
         height="1"
         fill="#000000"
         id="rect374" />
      <rect
         x="13"
         y="10"
         width="1"
         height="1"
         fill="#000000"
         id="rect376" />
      <rect
         x="14"
         y="10"
         width="1"
         height="1"
         fill="#000000"
         id="rect378" />
      <rect
         x="15"
         y="10"
         width="1"
         height="1"
         fill="#000000"
         id="rect380" />
      <rect
         x="16"
         y="10"
         width="1"
         height="1"
         fill="#000000"
         id="rect382" />
      <rect
         x="17"
         y="10"
         width="1"
         height="1"
         fill="#000000"
         id="rect384" />
      <rect
         x="18"
         y="10"
         width="1"
         height="1"
         fill="#000000"
         id="rect386" />
      <rect
         x="19"
         y="10"
         width="1"
         height="1"
         fill="#000000"
         id="rect388" />
      <rect
         x="23"
         y="10"
         width="1"
         height="1"
         fill="#000000"
         id="rect390" />
      <rect
         x="27"
         y="10"
         width="1"
         height="1"
         fill="#000000"
         id="rect392" />
      <rect
         x="28"
         y="10"
         width="1"
         height="1"
         fill="#000000"
         id="rect394" />
      <rect
         x="30"
         y="10"
         width="1"
         height="1"
         fill="#000000"
         id="rect396" />
      <rect
         x="32"
         y="10"
         width="1"
         height="1"
         fill="#000000"
         id="rect398" />
      <rect
         x="3"
         y="11"
         width="1"
         height="1"
         fill="#000000"
         id="rect400" />
      <rect
         x="7"
         y="11"
         width="1"
         height="1"
         fill="#000000"
         id="rect402" />
      <rect
         x="13"
         y="11"
         width="1"
         height="1"
         fill="#000000"
         id="rect404" />
      <rect
         x="15"
         y="11"
         width="1"
         height="1"
         fill="#000000"
         id="rect406" />
      <rect
         x="18"
         y="11"
         width="1"
         height="1"
         fill="#000000"
         id="rect408" />
      <rect
         x="19"
         y="11"
         width="1"
         height="1"
         fill="#000000"
         id="rect410" />
      <rect
         x="22"
         y="11"
         width="1"
         height="1"
         fill="#000000"
         id="rect412" />
      <rect
         x="24"
         y="11"
         width="1"
         height="1"
         fill="#000000"
         id="rect414" />
      <rect
         x="26"
         y="11"
         width="1"
         height="1"
         fill="#000000"
         id="rect416" />
      <rect
         x="27"
         y="11"
         width="1"
         height="1"
         fill="#000000"
         id="rect418" />
      <rect
         x="29"
         y="11"
         width="1"
         height="1"
         fill="#000000"
         id="rect420" />
      <rect
         x="31"
         y="11"
         width="1"
         height="1"
         fill="#000000"
         id="rect422" />
      <rect
         x="32"
         y="11"
         width="1"
         height="1"
         fill="#000000"
         id="rect424" />
      <rect
         x="1"
         y="12"
         width="1"
         height="1"
         fill="#000000"
         id="rect426" />
      <rect
         x="3"
         y="12"
         width="1"
         height="1"
         fill="#000000"
         id="rect428" />
      <rect
         x="5"
         y="12"
         width="1"
         height="1"
         fill="#000000"
         id="rect430" />
      <rect
         x="6"
         y="12"
         width="1"
         height="1"
         fill="#000000"
         id="rect432" />
      <rect
         x="7"
         y="12"
         width="1"
         height="1"
         fill="#000000"
         id="rect434" />
      <rect
         x="8"
         y="12"
         width="1"
         height="1"
         fill="#000000"
         id="rect436" />
      <rect
         x="15"
         y="12"
         width="1"
         height="1"
         fill="#000000"
         id="rect438" />
      <rect
         x="17"
         y="12"
         width="1"
         height="1"
         fill="#000000"
         id="rect440" />
      <rect
         x="19"
         y="12"
         width="1"
         height="1"
         fill="#000000"
         id="rect442" />
      <rect
         x="21"
         y="12"
         width="1"
         height="1"
         fill="#000000"
         id="rect444" />
      <rect
         x="22"
         y="12"
         width="1"
         height="1"
         fill="#000000"
         id="rect446" />
      <rect
         x="23"
         y="12"
         width="1"
         height="1"
         fill="#000000"
         id="rect448" />
      <rect
         x="24"
         y="12"
         width="1"
         height="1"
         fill="#000000"
         id="rect450" />
      <rect
         x="26"
         y="12"
         width="1"
         height="1"
         fill="#000000"
         id="rect452" />
      <rect
         x="27"
         y="12"
         width="1"
         height="1"
         fill="#000000"
         id="rect454" />
      <rect
         x="29"
         y="12"
         width="1"
         height="1"
         fill="#000000"
         id="rect456" />
      <rect
         x="32"
         y="12"
         width="1"
         height="1"
         fill="#000000"
         id="rect458" />
      <rect
         x="0"
         y="13"
         width="1"
         height="1"
         fill="#000000"
         id="rect460" />
      <rect
         x="5"
         y="13"
         width="1"
         height="1"
         fill="#000000"
         id="rect462" />
      <rect
         x="7"
         y="13"
         width="1"
         height="1"
         fill="#000000"
         id="rect464" />
      <rect
         x="8"
         y="13"
         width="1"
         height="1"
         fill="#000000"
         id="rect466" />
      <rect
         x="12"
         y="13"
         width="1"
         height="1"
         fill="#000000"
         id="rect468" />
      <rect
         x="14"
         y="13"
         width="1"
         height="1"
         fill="#000000"
         id="rect470" />
      <rect
         x="15"
         y="13"
         width="1"
         height="1"
         fill="#000000"
         id="rect472" />
      <rect
         x="18"
         y="13"
         width="1"
         height="1"
         fill="#000000"
         id="rect474" />
      <rect
         x="19"
         y="13"
         width="1"
         height="1"
         fill="#000000"
         id="rect476" />
      <rect
         x="21"
         y="13"
         width="1"
         height="1"
         fill="#000000"
         id="rect478" />
      <rect
         x="23"
         y="13"
         width="1"
         height="1"
         fill="#000000"
         id="rect480" />
      <rect
         x="24"
         y="13"
         width="1"
         height="1"
         fill="#000000"
         id="rect482" />
      <rect
         x="26"
         y="13"
         width="1"
         height="1"
         fill="#000000"
         id="rect484" />
      <rect
         x="29"
         y="13"
         width="1"
         height="1"
         fill="#000000"
         id="rect486" />
      <rect
         x="32"
         y="13"
         width="1"
         height="1"
         fill="#000000"
         id="rect488" />
      <rect
         x="2"
         y="14"
         width="1"
         height="1"
         fill="#000000"
         id="rect490" />
      <rect
         x="4"
         y="14"
         width="1"
         height="1"
         fill="#000000"
         id="rect492" />
      <rect
         x="6"
         y="14"
         width="1"
         height="1"
         fill="#000000"
         id="rect494" />
      <rect
         x="9"
         y="14"
         width="1"
         height="1"
         fill="#000000"
         id="rect496" />
      <rect
         x="10"
         y="14"
         width="1"
         height="1"
         fill="#000000"
         id="rect498" />
      <rect
         x="11"
         y="14"
         width="1"
         height="1"
         fill="#000000"
         id="rect500" />
      <rect
         x="12"
         y="14"
         width="1"
         height="1"
         fill="#000000"
         id="rect502" />
      <rect
         x="15"
         y="14"
         width="1"
         height="1"
         fill="#000000"
         id="rect504" />
      <rect
         x="17"
         y="14"
         width="1"
         height="1"
         fill="#000000"
         id="rect506" />
      <rect
         x="18"
         y="14"
         width="1"
         height="1"
         fill="#000000"
         id="rect508" />
      <rect
         x="20"
         y="14"
         width="1"
         height="1"
         fill="#000000"
         id="rect510" />
      <rect
         x="23"
         y="14"
         width="1"
         height="1"
         fill="#000000"
         id="rect512" />
      <rect
         x="24"
         y="14"
         width="1"
         height="1"
         fill="#000000"
         id="rect514" />
      <rect
         x="30"
         y="14"
         width="1"
         height="1"
         fill="#000000"
         id="rect516" />
      <rect
         x="32"
         y="14"
         width="1"
         height="1"
         fill="#000000"
         id="rect518" />
      <rect
         x="0"
         y="15"
         width="1"
         height="1"
         fill="#000000"
         id="rect520" />
      <rect
         x="3"
         y="15"
         width="1"
         height="1"
         fill="#000000"
         id="rect522" />
      <rect
         x="4"
         y="15"
         width="1"
         height="1"
         fill="#000000"
         id="rect524" />
      <rect
         x="5"
         y="15"
         width="1"
         height="1"
         fill="#000000"
         id="rect526" />
      <rect
         x="8"
         y="15"
         width="1"
         height="1"
         fill="#000000"
         id="rect528" />
      <rect
         x="10"
         y="15"
         width="1"
         height="1"
         fill="#000000"
         id="rect530" />
      <rect
         x="14"
         y="15"
         width="1"
         height="1"
         fill="#000000"
         id="rect532" />
      <rect
         x="15"
         y="15"
         width="1"
         height="1"
         fill="#000000"
         id="rect534" />
      <rect
         x="16"
         y="15"
         width="1"
         height="1"
         fill="#000000"
         id="rect536" />
      <rect
         x="17"
         y="15"
         width="1"
         height="1"
         fill="#000000"
         id="rect538" />
      <rect
         x="19"
         y="15"
         width="1"
         height="1"
         fill="#000000"
         id="rect540" />
      <rect
         x="22"
         y="15"
         width="1"
         height="1"
         fill="#000000"
         id="rect542" />
      <rect
         x="24"
         y="15"
         width="1"
         height="1"
         fill="#000000"
         id="rect544" />
      <rect
         x="25"
         y="15"
         width="1"
         height="1"
         fill="#000000"
         id="rect546" />
      <rect
         x="27"
         y="15"
         width="1"
         height="1"
         fill="#000000"
         id="rect548" />
      <rect
         x="29"
         y="15"
         width="1"
         height="1"
         fill="#000000"
         id="rect550" />
      <rect
         x="31"
         y="15"
         width="1"
         height="1"
         fill="#000000"
         id="rect552" />
      <rect
         x="1"
         y="16"
         width="1"
         height="1"
         fill="#000000"
         id="rect554" />
      <rect
         x="6"
         y="16"
         width="1"
         height="1"
         fill="#000000"
         id="rect556" />
      <rect
         x="8"
         y="16"
         width="1"
         height="1"
         fill="#000000"
         id="rect558" />
      <rect
         x="11"
         y="16"
         width="1"
         height="1"
         fill="#000000"
         id="rect560" />
      <rect
         x="15"
         y="16"
         width="1"
         height="1"
         fill="#000000"
         id="rect562" />
      <rect
         x="17"
         y="16"
         width="1"
         height="1"
         fill="#000000"
         id="rect564" />
      <rect
         x="18"
         y="16"
         width="1"
         height="1"
         fill="#000000"
         id="rect566" />
      <rect
         x="19"
         y="16"
         width="1"
         height="1"
         fill="#000000"
         id="rect568" />
      <rect
         x="20"
         y="16"
         width="1"
         height="1"
         fill="#000000"
         id="rect570" />
      <rect
         x="22"
         y="16"
         width="1"
         height="1"
         fill="#000000"
         id="rect572" />
      <rect
         x="26"
         y="16"
         width="1"
         height="1"
         fill="#000000"
         id="rect574" />
      <rect
         x="27"
         y="16"
         width="1"
         height="1"
         fill="#000000"
         id="rect576" />
      <rect
         x="31"
         y="16"
         width="1"
         height="1"
         fill="#000000"
         id="rect578" />
      <rect
         x="32"
         y="16"
         width="1"
         height="1"
         fill="#000000"
         id="rect580" />
      <rect
         x="3"
         y="17"
         width="1"
         height="1"
         fill="#000000"
         id="rect582" />
      <rect
         x="7"
         y="17"
         width="1"
         height="1"
         fill="#000000"
         id="rect584" />
      <rect
         x="8"
         y="17"
         width="1"
         height="1"
         fill="#000000"
         id="rect586" />
      <rect
         x="9"
         y="17"
         width="1"
         height="1"
         fill="#000000"
         id="rect588" />
      <rect
         x="12"
         y="17"
         width="1"
         height="1"
         fill="#000000"
         id="rect590" />
      <rect
         x="14"
         y="17"
         width="1"
         height="1"
         fill="#000000"
         id="rect592" />
      <rect
         x="15"
         y="17"
         width="1"
         height="1"
         fill="#000000"
         id="rect594" />
      <rect
         x="16"
         y="17"
         width="1"
         height="1"
         fill="#000000"
         id="rect596" />
      <rect
         x="19"
         y="17"
         width="1"
         height="1"
         fill="#000000"
         id="rect598" />
      <rect
         x="21"
         y="17"
         width="1"
         height="1"
         fill="#000000"
         id="rect600" />
      <rect
         x="23"
         y="17"
         width="1"
         height="1"
         fill="#000000"
         id="rect602" />
      <rect
         x="26"
         y="17"
         width="1"
         height="1"
         fill="#000000"
         id="rect604" />
      <rect
         x="30"
         y="17"
         width="1"
         height="1"
         fill="#000000"
         id="rect606" />
      <rect
         x="31"
         y="17"
         width="1"
         height="1"
         fill="#000000"
         id="rect608" />
      <rect
         x="32"
         y="17"
         width="1"
         height="1"
         fill="#000000"
         id="rect610" />
      <rect
         x="1"
         y="18"
         width="1"
         height="1"
         fill="#000000"
         id="rect612" />
      <rect
         x="3"
         y="18"
         width="1"
         height="1"
         fill="#000000"
         id="rect614" />
      <rect
         x="5"
         y="18"
         width="1"
         height="1"
         fill="#000000"
         id="rect616" />
      <rect
         x="6"
         y="18"
         width="1"
         height="1"
         fill="#000000"
         id="rect618" />
      <rect
         x="8"
         y="18"
         width="1"
         height="1"
         fill="#000000"
         id="rect620" />
      <rect
         x="9"
         y="18"
         width="1"
         height="1"
         fill="#000000"
         id="rect622" />
      <rect
         x="10"
         y="18"
         width="1"
         height="1"
         fill="#000000"
         id="rect624" />
      <rect
         x="11"
         y="18"
         width="1"
         height="1"
         fill="#000000"
         id="rect626" />
      <rect
         x="12"
         y="18"
         width="1"
         height="1"
         fill="#000000"
         id="rect628" />
      <rect
         x="13"
         y="18"
         width="1"
         height="1"
         fill="#000000"
         id="rect630" />
      <rect
         x="15"
         y="18"
         width="1"
         height="1"
         fill="#000000"
         id="rect632" />
      <rect
         x="16"
         y="18"
         width="1"
         height="1"
         fill="#000000"
         id="rect634" />
      <rect
         x="18"
         y="18"
         width="1"
         height="1"
         fill="#000000"
         id="rect636" />
      <rect
         x="19"
         y="18"
         width="1"
         height="1"
         fill="#000000"
         id="rect638" />
      <rect
         x="21"
         y="18"
         width="1"
         height="1"
         fill="#000000"
         id="rect640" />
      <rect
         x="23"
         y="18"
         width="1"
         height="1"
         fill="#000000"
         id="rect642" />
      <rect
         x="28"
         y="18"
         width="1"
         height="1"
         fill="#000000"
         id="rect644" />
      <rect
         x="29"
         y="18"
         width="1"
         height="1"
         fill="#000000"
         id="rect646" />
      <rect
         x="30"
         y="18"
         width="1"
         height="1"
         fill="#000000"
         id="rect648" />
      <rect
         x="32"
         y="18"
         width="1"
         height="1"
         fill="#000000"
         id="rect650" />
      <rect
         x="1"
         y="19"
         width="1"
         height="1"
         fill="#000000"
         id="rect652" />
      <rect
         x="3"
         y="19"
         width="1"
         height="1"
         fill="#000000"
         id="rect654" />
      <rect
         x="5"
         y="19"
         width="1"
         height="1"
         fill="#000000"
         id="rect656" />
      <rect
         x="7"
         y="19"
         width="1"
         height="1"
         fill="#000000"
         id="rect658" />
      <rect
         x="14"
         y="19"
         width="1"
         height="1"
         fill="#000000"
         id="rect660" />
      <rect
         x="15"
         y="19"
         width="1"
         height="1"
         fill="#000000"
         id="rect662" />
      <rect
         x="19"
         y="19"
         width="1"
         height="1"
         fill="#000000"
         id="rect664" />
      <rect
         x="20"
         y="19"
         width="1"
         height="1"
         fill="#000000"
         id="rect666" />
      <rect
         x="22"
         y="19"
         width="1"
         height="1"
         fill="#000000"
         id="rect668" />
      <rect
         x="23"
         y="19"
         width="1"
         height="1"
         fill="#000000"
         id="rect670" />
      <rect
         x="26"
         y="19"
         width="1"
         height="1"
         fill="#000000"
         id="rect672" />
      <rect
         x="28"
         y="19"
         width="1"
         height="1"
         fill="#000000"
         id="rect674" />
      <rect
         x="29"
         y="19"
         width="1"
         height="1"
         fill="#000000"
         id="rect676" />
      <rect
         x="32"
         y="19"
         width="1"
         height="1"
         fill="#000000"
         id="rect678" />
      <rect
         x="1"
         y="20"
         width="1"
         height="1"
         fill="#000000"
         id="rect680" />
      <rect
         x="2"
         y="20"
         width="1"
         height="1"
         fill="#000000"
         id="rect682" />
      <rect
         x="5"
         y="20"
         width="1"
         height="1"
         fill="#000000"
         id="rect684" />
      <rect
         x="6"
         y="20"
         width="1"
         height="1"
         fill="#000000"
         id="rect686" />
      <rect
         x="7"
         y="20"
         width="1"
         height="1"
         fill="#000000"
         id="rect688" />
      <rect
         x="8"
         y="20"
         width="1"
         height="1"
         fill="#000000"
         id="rect690" />
      <rect
         x="12"
         y="20"
         width="1"
         height="1"
         fill="#000000"
         id="rect692" />
      <rect
         x="15"
         y="20"
         width="1"
         height="1"
         fill="#000000"
         id="rect694" />
      <rect
         x="17"
         y="20"
         width="1"
         height="1"
         fill="#000000"
         id="rect696" />
      <rect
         x="18"
         y="20"
         width="1"
         height="1"
         fill="#000000"
         id="rect698" />
      <rect
         x="20"
         y="20"
         width="1"
         height="1"
         fill="#000000"
         id="rect700" />
      <rect
         x="23"
         y="20"
         width="1"
         height="1"
         fill="#000000"
         id="rect702" />
      <rect
         x="24"
         y="20"
         width="1"
         height="1"
         fill="#000000"
         id="rect704" />
      <rect
         x="26"
         y="20"
         width="1"
         height="1"
         fill="#000000"
         id="rect706" />
      <rect
         x="27"
         y="20"
         width="1"
         height="1"
         fill="#000000"
         id="rect708" />
      <rect
         x="31"
         y="20"
         width="1"
         height="1"
         fill="#000000"
         id="rect710" />
      <rect
         x="32"
         y="20"
         width="1"
         height="1"
         fill="#000000"
         id="rect712" />
      <rect
         x="7"
         y="21"
         width="1"
         height="1"
         fill="#000000"
         id="rect714" />
      <rect
         x="10"
         y="21"
         width="1"
         height="1"
         fill="#000000"
         id="rect716" />
      <rect
         x="13"
         y="21"
         width="1"
         height="1"
         fill="#000000"
         id="rect718" />
      <rect
         x="14"
         y="21"
         width="1"
         height="1"
         fill="#000000"
         id="rect720" />
      <rect
         x="16"
         y="21"
         width="1"
         height="1"
         fill="#000000"
         id="rect722" />
      <rect
         x="18"
         y="21"
         width="1"
         height="1"
         fill="#000000"
         id="rect724" />
      <rect
         x="19"
         y="21"
         width="1"
         height="1"
         fill="#000000"
         id="rect726" />
      <rect
         x="23"
         y="21"
         width="1"
         height="1"
         fill="#000000"
         id="rect728" />
      <rect
         x="24"
         y="21"
         width="1"
         height="1"
         fill="#000000"
         id="rect730" />
      <rect
         x="26"
         y="21"
         width="1"
         height="1"
         fill="#000000"
         id="rect732" />
      <rect
         x="29"
         y="21"
         width="1"
         height="1"
         fill="#000000"
         id="rect734" />
      <rect
         x="31"
         y="21"
         width="1"
         height="1"
         fill="#000000"
         id="rect736" />
      <rect
         x="32"
         y="21"
         width="1"
         height="1"
         fill="#000000"
         id="rect738" />
      <rect
         x="0"
         y="22"
         width="1"
         height="1"
         fill="#000000"
         id="rect740" />
      <rect
         x="1"
         y="22"
         width="1"
         height="1"
         fill="#000000"
         id="rect742" />
      <rect
         x="3"
         y="22"
         width="1"
         height="1"
         fill="#000000"
         id="rect744" />
      <rect
         x="4"
         y="22"
         width="1"
         height="1"
         fill="#000000"
         id="rect746" />
      <rect
         x="6"
         y="22"
         width="1"
         height="1"
         fill="#000000"
         id="rect748" />
      <rect
         x="9"
         y="22"
         width="1"
         height="1"
         fill="#000000"
         id="rect750" />
      <rect
         x="10"
         y="22"
         width="1"
         height="1"
         fill="#000000"
         id="rect752" />
      <rect
         x="12"
         y="22"
         width="1"
         height="1"
         fill="#000000"
         id="rect754" />
      <rect
         x="13"
         y="22"
         width="1"
         height="1"
         fill="#000000"
         id="rect756" />
      <rect
         x="14"
         y="22"
         width="1"
         height="1"
         fill="#000000"
         id="rect758" />
      <rect
         x="16"
         y="22"
         width="1"
         height="1"
         fill="#000000"
         id="rect760" />
      <rect
         x="17"
         y="22"
         width="1"
         height="1"
         fill="#000000"
         id="rect762" />
      <rect
         x="18"
         y="22"
         width="1"
         height="1"
         fill="#000000"
         id="rect764" />
      <rect
         x="20"
         y="22"
         width="1"
         height="1"
         fill="#000000"
         id="rect766" />
      <rect
         x="22"
         y="22"
         width="1"
         height="1"
         fill="#000000"
         id="rect768" />
      <rect
         x="23"
         y="22"
         width="1"
         height="1"
         fill="#000000"
         id="rect770" />
      <rect
         x="24"
         y="22"
         width="1"
         height="1"
         fill="#000000"
         id="rect772" />
      <rect
         x="25"
         y="22"
         width="1"
         height="1"
         fill="#000000"
         id="rect774" />
      <rect
         x="26"
         y="22"
         width="1"
         height="1"
         fill="#000000"
         id="rect776" />
      <rect
         x="32"
         y="22"
         width="1"
         height="1"
         fill="#000000"
         id="rect778" />
      <rect
         x="3"
         y="23"
         width="1"
         height="1"
         fill="#000000"
         id="rect780" />
      <rect
         x="4"
         y="23"
         width="1"
         height="1"
         fill="#000000"
         id="rect782" />
      <rect
         x="8"
         y="23"
         width="1"
         height="1"
         fill="#000000"
         id="rect784" />
      <rect
         x="9"
         y="23"
         width="1"
         height="1"
         fill="#000000"
         id="rect786" />
      <rect
         x="10"
         y="23"
         width="1"
         height="1"
         fill="#000000"
         id="rect788" />
      <rect
         x="12"
         y="23"
         width="1"
         height="1"
         fill="#000000"
         id="rect790" />
      <rect
         x="14"
         y="23"
         width="1"
         height="1"
         fill="#000000"
         id="rect792" />
      <rect
         x="15"
         y="23"
         width="1"
         height="1"
         fill="#000000"
         id="rect794" />
      <rect
         x="19"
         y="23"
         width="1"
         height="1"
         fill="#000000"
         id="rect796" />
      <rect
         x="20"
         y="23"
         width="1"
         height="1"
         fill="#000000"
         id="rect798" />
      <rect
         x="22"
         y="23"
         width="1"
         height="1"
         fill="#000000"
         id="rect800" />
      <rect
         x="24"
         y="23"
         width="1"
         height="1"
         fill="#000000"
         id="rect802" />
      <rect
         x="27"
         y="23"
         width="1"
         height="1"
         fill="#000000"
         id="rect804" />
      <rect
         x="29"
         y="23"
         width="1"
         height="1"
         fill="#000000"
         id="rect806" />
      <rect
         x="31"
         y="23"
         width="1"
         height="1"
         fill="#000000"
         id="rect808" />
      <rect
         x="0"
         y="24"
         width="1"
         height="1"
         fill="#000000"
         id="rect810" />
      <rect
         x="1"
         y="24"
         width="1"
         height="1"
         fill="#000000"
         id="rect812" />
      <rect
         x="2"
         y="24"
         width="1"
         height="1"
         fill="#000000"
         id="rect814" />
      <rect
         x="3"
         y="24"
         width="1"
         height="1"
         fill="#000000"
         id="rect816" />
      <rect
         x="4"
         y="24"
         width="1"
         height="1"
         fill="#000000"
         id="rect818" />
      <rect
         x="5"
         y="24"
         width="1"
         height="1"
         fill="#000000"
         id="rect820" />
      <rect
         x="6"
         y="24"
         width="1"
         height="1"
         fill="#000000"
         id="rect822" />
      <rect
         x="10"
         y="24"
         width="1"
         height="1"
         fill="#000000"
         id="rect824" />
      <rect
         x="12"
         y="24"
         width="1"
         height="1"
         fill="#000000"
         id="rect826" />
      <rect
         x="13"
         y="24"
         width="1"
         height="1"
         fill="#000000"
         id="rect828" />
      <rect
         x="15"
         y="24"
         width="1"
         height="1"
         fill="#000000"
         id="rect830" />
      <rect
         x="16"
         y="24"
         width="1"
         height="1"
         fill="#000000"
         id="rect832" />
      <rect
         x="23"
         y="24"
         width="1"
         height="1"
         fill="#000000"
         id="rect834" />
      <rect
         x="24"
         y="24"
         width="1"
         height="1"
         fill="#000000"
         id="rect836" />
      <rect
         x="25"
         y="24"
         width="1"
         height="1"
         fill="#000000"
         id="rect838" />
      <rect
         x="26"
         y="24"
         width="1"
         height="1"
         fill="#000000"
         id="rect840" />
      <rect
         x="27"
         y="24"
         width="1"
         height="1"
         fill="#000000"
         id="rect842" />
      <rect
         x="28"
         y="24"
         width="1"
         height="1"
         fill="#000000"
         id="rect844" />
      <rect
         x="31"
         y="24"
         width="1"
         height="1"
         fill="#000000"
         id="rect846" />
      <rect
         x="32"
         y="24"
         width="1"
         height="1"
         fill="#000000"
         id="rect848" />
      <rect
         x="8"
         y="25"
         width="1"
         height="1"
         fill="#000000"
         id="rect850" />
      <rect
         x="9"
         y="25"
         width="1"
         height="1"
         fill="#000000"
         id="rect852" />
      <rect
         x="11"
         y="25"
         width="1"
         height="1"
         fill="#000000"
         id="rect854" />
      <rect
         x="12"
         y="25"
         width="1"
         height="1"
         fill="#000000"
         id="rect856" />
      <rect
         x="15"
         y="25"
         width="1"
         height="1"
         fill="#000000"
         id="rect858" />
      <rect
         x="16"
         y="25"
         width="1"
         height="1"
         fill="#000000"
         id="rect860" />
      <rect
         x="17"
         y="25"
         width="1"
         height="1"
         fill="#000000"
         id="rect862" />
      <rect
         x="21"
         y="25"
         width="1"
         height="1"
         fill="#000000"
         id="rect864" />
      <rect
         x="23"
         y="25"
         width="1"
         height="1"
         fill="#000000"
         id="rect866" />
      <rect
         x="24"
         y="25"
         width="1"
         height="1"
         fill="#000000"
         id="rect868" />
      <rect
         x="28"
         y="25"
         width="1"
         height="1"
         fill="#000000"
         id="rect870" />
      <rect
         x="29"
         y="25"
         width="1"
         height="1"
         fill="#000000"
         id="rect872" />
      <rect
         x="30"
         y="25"
         width="1"
         height="1"
         fill="#000000"
         id="rect874" />
      <rect
         x="31"
         y="25"
         width="1"
         height="1"
         fill="#000000"
         id="rect876" />
      <rect
         x="32"
         y="25"
         width="1"
         height="1"
         fill="#000000"
         id="rect878" />
      <rect
         x="0"
         y="26"
         width="1"
         height="1"
         fill="#000000"
         id="rect880" />
      <rect
         x="1"
         y="26"
         width="1"
         height="1"
         fill="#000000"
         id="rect882" />
      <rect
         x="2"
         y="26"
         width="1"
         height="1"
         fill="#000000"
         id="rect884" />
      <rect
         x="3"
         y="26"
         width="1"
         height="1"
         fill="#000000"
         id="rect886" />
      <rect
         x="4"
         y="26"
         width="1"
         height="1"
         fill="#000000"
         id="rect888" />
      <rect
         x="5"
         y="26"
         width="1"
         height="1"
         fill="#000000"
         id="rect890" />
      <rect
         x="6"
         y="26"
         width="1"
         height="1"
         fill="#000000"
         id="rect892" />
      <rect
         x="8"
         y="26"
         width="1"
         height="1"
         fill="#000000"
         id="rect894" />
      <rect
         x="10"
         y="26"
         width="1"
         height="1"
         fill="#000000"
         id="rect896" />
      <rect
         x="14"
         y="26"
         width="1"
         height="1"
         fill="#000000"
         id="rect898" />
      <rect
         x="15"
         y="26"
         width="1"
         height="1"
         fill="#000000"
         id="rect900" />
      <rect
         x="16"
         y="26"
         width="1"
         height="1"
         fill="#000000"
         id="rect902" />
      <rect
         x="17"
         y="26"
         width="1"
         height="1"
         fill="#000000"
         id="rect904" />
      <rect
         x="19"
         y="26"
         width="1"
         height="1"
         fill="#000000"
         id="rect906" />
      <rect
         x="20"
         y="26"
         width="1"
         height="1"
         fill="#000000"
         id="rect908" />
      <rect
         x="24"
         y="26"
         width="1"
         height="1"
         fill="#000000"
         id="rect910" />
      <rect
         x="26"
         y="26"
         width="1"
         height="1"
         fill="#000000"
         id="rect912" />
      <rect
         x="28"
         y="26"
         width="1"
         height="1"
         fill="#000000"
         id="rect914" />
      <rect
         x="29"
         y="26"
         width="1"
         height="1"
         fill="#000000"
         id="rect916" />
      <rect
         x="32"
         y="26"
         width="1"
         height="1"
         fill="#000000"
         id="rect918" />
      <rect
         x="0"
         y="27"
         width="1"
         height="1"
         fill="#000000"
         id="rect920" />
      <rect
         x="6"
         y="27"
         width="1"
         height="1"
         fill="#000000"
         id="rect922" />
      <rect
         x="8"
         y="27"
         width="1"
         height="1"
         fill="#000000"
         id="rect924" />
      <rect
         x="9"
         y="27"
         width="1"
         height="1"
         fill="#000000"
         id="rect926" />
      <rect
         x="10"
         y="27"
         width="1"
         height="1"
         fill="#000000"
         id="rect928" />
      <rect
         x="11"
         y="27"
         width="1"
         height="1"
         fill="#000000"
         id="rect930" />
      <rect
         x="12"
         y="27"
         width="1"
         height="1"
         fill="#000000"
         id="rect932" />
      <rect
         x="14"
         y="27"
         width="1"
         height="1"
         fill="#000000"
         id="rect934" />
      <rect
         x="15"
         y="27"
         width="1"
         height="1"
         fill="#000000"
         id="rect936" />
      <rect
         x="16"
         y="27"
         width="1"
         height="1"
         fill="#000000"
         id="rect938" />
      <rect
         x="17"
         y="27"
         width="1"
         height="1"
         fill="#000000"
         id="rect940" />
      <rect
         x="21"
         y="27"
         width="1"
         height="1"
         fill="#000000"
         id="rect942" />
      <rect
         x="23"
         y="27"
         width="1"
         height="1"
         fill="#000000"
         id="rect944" />
      <rect
         x="24"
         y="27"
         width="1"
         height="1"
         fill="#000000"
         id="rect946" />
      <rect
         x="28"
         y="27"
         width="1"
         height="1"
         fill="#000000"
         id="rect948" />
      <rect
         x="29"
         y="27"
         width="1"
         height="1"
         fill="#000000"
         id="rect950" />
      <rect
         x="31"
         y="27"
         width="1"
         height="1"
         fill="#000000"
         id="rect952" />
      <rect
         x="32"
         y="27"
         width="1"
         height="1"
         fill="#000000"
         id="rect954" />
      <rect
         x="0"
         y="28"
         width="1"
         height="1"
         fill="#000000"
         id="rect956" />
      <rect
         x="2"
         y="28"
         width="1"
         height="1"
         fill="#000000"
         id="rect958" />
      <rect
         x="3"
         y="28"
         width="1"
         height="1"
         fill="#000000"
         id="rect960" />
      <rect
         x="4"
         y="28"
         width="1"
         height="1"
         fill="#000000"
         id="rect962" />
      <rect
         x="6"
         y="28"
         width="1"
         height="1"
         fill="#000000"
         id="rect964" />
      <rect
         x="9"
         y="28"
         width="1"
         height="1"
         fill="#000000"
         id="rect966" />
      <rect
         x="10"
         y="28"
         width="1"
         height="1"
         fill="#000000"
         id="rect968" />
      <rect
         x="15"
         y="28"
         width="1"
         height="1"
         fill="#000000"
         id="rect970" />
      <rect
         x="16"
         y="28"
         width="1"
         height="1"
         fill="#000000"
         id="rect972" />
      <rect
         x="19"
         y="28"
         width="1"
         height="1"
         fill="#000000"
         id="rect974" />
      <rect
         x="21"
         y="28"
         width="1"
         height="1"
         fill="#000000"
         id="rect976" />
      <rect
         x="23"
         y="28"
         width="1"
         height="1"
         fill="#000000"
         id="rect978" />
      <rect
         x="24"
         y="28"
         width="1"
         height="1"
         fill="#000000"
         id="rect980" />
      <rect
         x="25"
         y="28"
         width="1"
         height="1"
         fill="#000000"
         id="rect982" />
      <rect
         x="26"
         y="28"
         width="1"
         height="1"
         fill="#000000"
         id="rect984" />
      <rect
         x="27"
         y="28"
         width="1"
         height="1"
         fill="#000000"
         id="rect986" />
      <rect
         x="28"
         y="28"
         width="1"
         height="1"
         fill="#000000"
         id="rect988" />
      <rect
         x="29"
         y="28"
         width="1"
         height="1"
         fill="#000000"
         id="rect990" />
      <rect
         x="0"
         y="29"
         width="1"
         height="1"
         fill="#000000"
         id="rect992" />
      <rect
         x="2"
         y="29"
         width="1"
         height="1"
         fill="#000000"
         id="rect994" />
      <rect
         x="3"
         y="29"
         width="1"
         height="1"
         fill="#000000"
         id="rect996" />
      <rect
         x="4"
         y="29"
         width="1"
         height="1"
         fill="#000000"
         id="rect998" />
      <rect
         x="6"
         y="29"
         width="1"
         height="1"
         fill="#000000"
         id="rect1000" />
      <rect
         x="10"
         y="29"
         width="1"
         height="1"
         fill="#000000"
         id="rect1002" />
      <rect
         x="12"
         y="29"
         width="1"
         height="1"
         fill="#000000"
         id="rect1004" />
      <rect
         x="14"
         y="29"
         width="1"
         height="1"
         fill="#000000"
         id="rect1006" />
      <rect
         x="15"
         y="29"
         width="1"
         height="1"
         fill="#000000"
         id="rect1008" />
      <rect
         x="18"
         y="29"
         width="1"
         height="1"
         fill="#000000"
         id="rect1010" />
      <rect
         x="20"
         y="29"
         width="1"
         height="1"
         fill="#000000"
         id="rect1012" />
      <rect
         x="23"
         y="29"
         width="1"
         height="1"
         fill="#000000"
         id="rect1014" />
      <rect
         x="25"
         y="29"
         width="1"
         height="1"
         fill="#000000"
         id="rect1016" />
      <rect
         x="27"
         y="29"
         width="1"
         height="1"
         fill="#000000"
         id="rect1018" />
      <rect
         x="28"
         y="29"
         width="1"
         height="1"
         fill="#000000"
         id="rect1020" />
      <rect
         x="32"
         y="29"
         width="1"
         height="1"
         fill="#000000"
         id="rect1022" />
      <rect
         x="0"
         y="30"
         width="1"
         height="1"
         fill="#000000"
         id="rect1024" />
      <rect
         x="2"
         y="30"
         width="1"
         height="1"
         fill="#000000"
         id="rect1026" />
      <rect
         x="3"
         y="30"
         width="1"
         height="1"
         fill="#000000"
         id="rect1028" />
      <rect
         x="4"
         y="30"
         width="1"
         height="1"
         fill="#000000"
         id="rect1030" />
      <rect
         x="6"
         y="30"
         width="1"
         height="1"
         fill="#000000"
         id="rect1032" />
      <rect
         x="8"
         y="30"
         width="1"
         height="1"
         fill="#000000"
         id="rect1034" />
      <rect
         x="9"
         y="30"
         width="1"
         height="1"
         fill="#000000"
         id="rect1036" />
      <rect
         x="11"
         y="30"
         width="1"
         height="1"
         fill="#000000"
         id="rect1038" />
      <rect
         x="12"
         y="30"
         width="1"
         height="1"
         fill="#000000"
         id="rect1040" />
      <rect
         x="13"
         y="30"
         width="1"
         height="1"
         fill="#000000"
         id="rect1042" />
      <rect
         x="15"
         y="30"
         width="1"
         height="1"
         fill="#000000"
         id="rect1044" />
      <rect
         x="16"
         y="30"
         width="1"
         height="1"
         fill="#000000"
         id="rect1046" />
      <rect
         x="17"
         y="30"
         width="1"
         height="1"
         fill="#000000"
         id="rect1048" />
      <rect
         x="18"
         y="30"
         width="1"
         height="1"
         fill="#000000"
         id="rect1050" />
      <rect
         x="20"
         y="30"
         width="1"
         height="1"
         fill="#000000"
         id="rect1052" />
      <rect
         x="21"
         y="30"
         width="1"
         height="1"
         fill="#000000"
         id="rect1054" />
      <rect
         x="23"
         y="30"
         width="1"
         height="1"
         fill="#000000"
         id="rect1056" />
      <rect
         x="24"
         y="30"
         width="1"
         height="1"
         fill="#000000"
         id="rect1058" />
      <rect
         x="28"
         y="30"
         width="1"
         height="1"
         fill="#000000"
         id="rect1060" />
      <rect
         x="29"
         y="30"
         width="1"
         height="1"
         fill="#000000"
         id="rect1062" />
      <rect
         x="31"
         y="30"
         width="1"
         height="1"
         fill="#000000"
         id="rect1064" />
      <rect
         x="32"
         y="30"
         width="1"
         height="1"
         fill="#000000"
         id="rect1066" />
      <rect
         x="0"
         y="31"
         width="1"
         height="1"
         fill="#000000"
         id="rect1068" />
      <rect
         x="6"
         y="31"
         width="1"
         height="1"
         fill="#000000"
         id="rect1070" />
      <rect
         x="10"
         y="31"
         width="1"
         height="1"
         fill="#000000"
         id="rect1072" />
      <rect
         x="13"
         y="31"
         width="1"
         height="1"
         fill="#000000"
         id="rect1074" />
      <rect
         x="14"
         y="31"
         width="1"
         height="1"
         fill="#000000"
         id="rect1076" />
      <rect
         x="15"
         y="31"
         width="1"
         height="1"
         fill="#000000"
         id="rect1078" />
      <rect
         x="17"
         y="31"
         width="1"
         height="1"
         fill="#000000"
         id="rect1080" />
      <rect
         x="19"
         y="31"
         width="1"
         height="1"
         fill="#000000"
         id="rect1082" />
      <rect
         x="20"
         y="31"
         width="1"
         height="1"
         fill="#000000"
         id="rect1084" />
      <rect
         x="21"
         y="31"
         width="1"
         height="1"
         fill="#000000"
         id="rect1086" />
      <rect
         x="24"
         y="31"
         width="1"
         height="1"
         fill="#000000"
         id="rect1088" />
      <rect
         x="26"
         y="31"
         width="1"
         height="1"
         fill="#000000"
         id="rect1090" />
      <rect
         x="29"
         y="31"
         width="1"
         height="1"
         fill="#000000"
         id="rect1092" />
      <rect
         x="0"
         y="32"
         width="1"
         height="1"
         fill="#000000"
         id="rect1094" />
      <rect
         x="1"
         y="32"
         width="1"
         height="1"
         fill="#000000"
         id="rect1096" />
      <rect
         x="2"
         y="32"
         width="1"
         height="1"
         fill="#000000"
         id="rect1098" />
      <rect
         x="3"
         y="32"
         width="1"
         height="1"
         fill="#000000"
         id="rect1100" />
      <rect
         x="4"
         y="32"
         width="1"
         height="1"
         fill="#000000"
         id="rect1102" />
      <rect
         x="5"
         y="32"
         width="1"
         height="1"
         fill="#000000"
         id="rect1104" />
      <rect
         x="6"
         y="32"
         width="1"
         height="1"
         fill="#000000"
         id="rect1106" />
      <rect
         x="9"
         y="32"
         width="1"
         height="1"
         fill="#000000"
         id="rect1108" />
      <rect
         x="10"
         y="32"
         width="1"
         height="1"
         fill="#000000"
         id="rect1110" />
      <rect
         x="13"
         y="32"
         width="1"
         height="1"
         fill="#000000"
         id="rect1112" />
      <rect
         x="16"
         y="32"
         width="1"
         height="1"
         fill="#000000"
         id="rect1114" />
      <rect
         x="19"
         y="32"
         width="1"
         height="1"
         fill="#000000"
         id="rect1116" />
      <rect
         x="22"
         y="32"
         width="1"
         height="1"
         fill="#000000"
         id="rect1118" />
      <rect
         x="24"
         y="32"
         width="1"
         height="1"
         fill="#000000"
         id="rect1120" />
      <rect
         x="28"
         y="32"
         width="1"
         height="1"
         fill="#000000"
         id="rect1122" />
      <rect
         x="29"
         y="32"
         width="1"
         height="1"
         fill="#000000"
         id="rect1124" />
      <rect
         x="32"
         y="32"
         width="1"
         height="1"
         fill="#000000"
         id="rect1126" />
    </g>
    <text
       xml:space="preserve"
       style="font-style:normal;font-variant:normal;font-weight:500;font-stretch:normal;font-size:10.5833px;line-height:1.25;font-family:Jost;-inkscape-font-specification:'Jost, Medium';font-variant-ligatures:normal;font-variant-caps:normal;font-variant-numeric:normal;font-variant-east-asian:normal;letter-spacing:0px;word-spacing:0px;fill:#000000;fill-opacity:1;stroke:none;stroke-width:0.264583"
       x="72.531746"
       y="177.20389"
       id="text7628"><tspan
         sodipodi:role="line"
         id="tspan7626"
         style="font-style:normal;font-variant:normal;font-weight:500;font-stretch:normal;font-size:10.5833px;font-family:Jost;-inkscape-font-specification:'Jost, Medium';font-variant-ligatures:normal;font-variant-caps:normal;font-variant-numeric:normal;font-variant-east-asian:normal;stroke-width:0.264583"
         x="72.531746"
         y="177.20389">www.klimauni-augsburg.de</tspan></text>
  </g>
</svg>
